{
  "name": "musa-core-enabling_platform-repository",
  "version": "0.0.1",
  "cookbooks": {
    "tut": {
      "version": "0.0.1",
      "description": "",
      "default": "moveus_cec_server",
      "recipes": [
        "moveus_cec_server",
        "moveus_mjp"
      ]
    },
    "dbaas": {
      "version": "0.0.1",
      "description": "",
      "default": "",
      "recipes": [
        
      ]
    },
    "aaaaas": {
      "version": "0.0.3",
      "description": "",
      "default": "",
      "recipes": [
      ]
    }
  },
  "source": "https://bitbucket.org/cerict/musa-applications-repository",
  "source_type": "git"
}
